# Blender v2.78 (sub 0) OBJ File: ''
# www.blender.org
mtllib Construible.mtl
o Plane.000_Plane.003
v 0.000000 0.002382 0.000000
v -0.002285 0.002382 -0.158339
v -0.030177 0.002382 -0.153617
v -0.056637 0.002382 -0.141016
v -0.086808 0.002382 -0.123121
v -0.119511 0.002382 -0.102624
v -0.147710 0.002382 -0.080744
v -0.165614 0.002382 -0.055805
v -0.177345 0.002382 -0.029183
v -0.188932 0.002382 -0.002179
v -0.196428 0.002382 0.024688
v -0.191455 0.002382 0.051231
v -0.169608 0.002382 0.076827
v -0.133301 0.002382 0.100586
v -0.091728 0.002382 0.123670
v -0.053349 0.002382 0.146420
v -0.023906 0.002382 0.159677
v 0.005704 0.002382 0.163846
v 0.043337 0.002382 0.158798
v 0.085832 0.002382 0.146889
v 0.127024 0.002382 0.135551
v 0.156649 0.002382 0.120090
v 0.171439 0.002382 0.092886
v 0.184554 0.002382 0.051737
v 0.196213 0.002382 0.005305
v 0.196504 0.002382 -0.033327
v 0.182608 0.002382 -0.059039
v 0.153663 0.002382 -0.078265
v 0.120391 0.002382 -0.093723
v 0.093922 0.002382 -0.108835
v 0.074608 0.002382 -0.127273
v 0.052354 0.002382 -0.142460
v 0.026244 0.002382 -0.153625
v 0.023959 0.002382 -0.311964
v -0.004570 0.002382 -0.316678
v 0.052488 0.002382 -0.307250
v 0.078598 0.002382 -0.296085
v 0.104708 0.002382 -0.284919
v 0.126963 0.002382 -0.269733
v 0.149217 0.002382 -0.254546
v 0.168531 0.002382 -0.236108
v 0.187844 0.002382 -0.217670
v 0.214313 0.002382 -0.202558
v 0.240782 0.002382 -0.187446
v 0.274054 0.002382 -0.171988
v 0.307326 0.002382 -0.156530
v 0.336271 0.002382 -0.137304
v 0.365215 0.002382 -0.118078
v 0.379112 0.002382 -0.092365
v 0.393008 0.002382 -0.066653
v 0.392717 0.002382 -0.028021
v 0.392426 0.002382 0.010610
v 0.380767 0.002382 0.057042
v 0.369108 0.002382 0.103474
v 0.355993 0.002382 0.144623
v 0.342878 0.002382 0.185773
v 0.328088 0.002382 0.212977
v 0.313298 0.002382 0.240181
v 0.283673 0.002382 0.255641
v 0.254048 0.002382 0.271102
v 0.212856 0.002382 0.282440
v 0.171665 0.002382 0.293779
v 0.129170 0.002382 0.305688
v 0.086675 0.002382 0.317597
v 0.049042 0.002382 0.322644
v 0.011409 0.002382 0.327692
v -0.018202 0.002382 0.323524
v -0.047812 0.002382 0.319355
v -0.077255 0.002382 0.306097
v -0.106698 0.002382 0.292839
v -0.145077 0.002382 0.270090
v -0.183456 0.002382 0.247341
v -0.225029 0.002382 0.224256
v -0.266601 0.002382 0.201172
v -0.302909 0.002382 0.177413
v -0.339216 0.002382 0.153653
v -0.361063 0.002382 0.128057
v -0.382910 0.002382 0.102462
v -0.387883 0.002382 0.075919
v -0.392855 0.002382 0.049376
v -0.385360 0.002382 0.022509
v -0.377864 0.002382 -0.004357
v -0.366277 0.002382 -0.031361
v -0.354689 0.002382 -0.058365
v -0.342959 0.002382 -0.084987
v -0.331228 0.002382 -0.111610
v -0.313324 0.002382 -0.136549
v -0.295419 0.002382 -0.161488
v -0.267220 0.002382 -0.183369
v -0.239021 0.002382 -0.205249
v -0.206319 0.002382 -0.225745
v -0.173617 0.002382 -0.246241
v -0.143445 0.002382 -0.264136
v -0.113274 0.002382 -0.282031
v -0.086814 0.002382 -0.294632
v -0.060354 0.002382 -0.307234
v -0.032462 0.002382 -0.311956
vt 0.5150 0.5207
vt 0.5123 0.7042
vt 0.4800 0.6988
vt 0.4493 0.6842
vt 0.4143 0.6634
vt 0.3764 0.6396
vt 0.3437 0.6143
vt 0.3230 0.5854
vt 0.3094 0.5545
vt 0.2959 0.5232
vt 0.2872 0.4921
vt 0.2930 0.4613
vt 0.3183 0.4316
vt 0.3604 0.4041
vt 0.4086 0.3773
vt 0.4531 0.3509
vt 0.4872 0.3356
vt 0.5216 0.3307
vt 0.5652 0.3366
vt 0.6145 0.3504
vt 0.6622 0.3635
vt 0.6966 0.3815
vt 0.7137 0.4130
vt 0.7289 0.4607
vt 0.7424 0.5145
vt 0.7428 0.5593
vt 0.7267 0.5891
vt 0.6931 0.6114
vt 0.6545 0.6293
vt 0.6238 0.6468
vt 0.6014 0.6682
vt 0.5757 0.6858
vt 0.5454 0.6988
vt 0.5427 0.8823
vt 0.5097 0.8878
vt 0.5758 0.8769
vt 0.6061 0.8639
vt 0.6363 0.8510
vt 0.6621 0.8334
vt 0.6879 0.8158
vt 0.7103 0.7944
vt 0.7327 0.7730
vt 0.7634 0.7555
vt 0.7941 0.7380
vt 0.8327 0.7201
vt 0.8712 0.7021
vt 0.9048 0.6798
vt 0.9383 0.6576
vt 0.9545 0.6278
vt 0.9706 0.5979
vt 0.9702 0.5532
vt 0.9699 0.5084
vt 0.9564 0.4545
vt 0.9429 0.4007
vt 0.9277 0.3530
vt 0.9125 0.3053
vt 0.8953 0.2738
vt 0.8782 0.2422
vt 0.8438 0.2243
vt 0.8095 0.2064
vt 0.7617 0.1932
vt 0.7140 0.1801
vt 0.6647 0.1663
vt 0.6154 0.1525
vt 0.5718 0.1466
vt 0.5282 0.1408
vt 0.4939 0.1456
vt 0.4595 0.1504
vt 0.4254 0.1658
vt 0.3913 0.1812
vt 0.3468 0.2076
vt 0.3023 0.2339
vt 0.2541 0.2607
vt 0.2059 0.2875
vt 0.1638 0.3150
vt 0.1217 0.3425
vt 0.0964 0.3722
vt 0.0711 0.4019
vt 0.0653 0.4327
vt 0.0595 0.4634
vt 0.0682 0.4946
vt 0.0769 0.5257
vt 0.0903 0.5570
vt 0.1038 0.5883
vt 0.1174 0.6192
vt 0.1310 0.6501
vt 0.1517 0.6790
vt 0.1725 0.7079
vt 0.2052 0.7333
vt 0.2379 0.7586
vt 0.2758 0.7824
vt 0.3137 0.8061
vt 0.3487 0.8269
vt 0.3836 0.8476
vt 0.4143 0.8622
vt 0.4450 0.8768
vt 0.4773 0.8823
vn -0.0000 1.0000 0.0000
usemtl None.001
s 1
f 1/1/1 2/2/1 3/3/1
f 1/1/1 3/3/1 4/4/1
f 1/1/1 4/4/1 5/5/1
f 1/1/1 5/5/1 6/6/1
f 1/1/1 6/6/1 7/7/1
f 1/1/1 7/7/1 8/8/1
f 1/1/1 8/8/1 9/9/1
f 1/1/1 9/9/1 10/10/1
f 1/1/1 10/10/1 11/11/1
f 1/1/1 11/11/1 12/12/1
f 1/1/1 12/12/1 13/13/1
f 1/1/1 13/13/1 14/14/1
f 1/1/1 14/14/1 15/15/1
f 1/1/1 15/15/1 16/16/1
f 1/1/1 16/16/1 17/17/1
f 1/1/1 17/17/1 18/18/1
f 1/1/1 18/18/1 19/19/1
f 1/1/1 19/19/1 20/20/1
f 1/1/1 20/20/1 21/21/1
f 1/1/1 21/21/1 22/22/1
f 1/1/1 22/22/1 23/23/1
f 1/1/1 23/23/1 24/24/1
f 1/1/1 24/24/1 25/25/1
f 1/1/1 25/25/1 26/26/1
f 1/1/1 26/26/1 27/27/1
f 1/1/1 27/27/1 28/28/1
f 1/1/1 28/28/1 29/29/1
f 1/1/1 29/29/1 30/30/1
f 1/1/1 30/30/1 31/31/1
f 1/1/1 31/31/1 32/32/1
f 1/1/1 32/32/1 33/33/1
f 1/1/1 33/33/1 2/2/1
f 2/2/1 34/34/1 35/35/1
f 2/2/1 33/33/1 34/34/1
f 33/33/1 36/36/1 34/34/1
f 33/33/1 37/37/1 36/36/1
f 33/33/1 32/32/1 37/37/1
f 32/32/1 38/38/1 37/37/1
f 32/32/1 39/39/1 38/38/1
f 32/32/1 31/31/1 39/39/1
f 31/31/1 40/40/1 39/39/1
f 31/31/1 41/41/1 40/40/1
f 31/31/1 30/30/1 41/41/1
f 30/30/1 42/42/1 41/41/1
f 30/30/1 43/43/1 42/42/1
f 30/30/1 29/29/1 43/43/1
f 29/29/1 44/44/1 43/43/1
f 29/29/1 45/45/1 44/44/1
f 29/29/1 28/28/1 45/45/1
f 28/28/1 46/46/1 45/45/1
f 28/28/1 47/47/1 46/46/1
f 28/28/1 27/27/1 47/47/1
f 27/27/1 48/48/1 47/47/1
f 27/27/1 49/49/1 48/48/1
f 27/27/1 26/26/1 49/49/1
f 26/26/1 50/50/1 49/49/1
f 26/26/1 51/51/1 50/50/1
f 26/26/1 25/25/1 51/51/1
f 25/25/1 52/52/1 51/51/1
f 25/25/1 53/53/1 52/52/1
f 25/25/1 24/24/1 53/53/1
f 24/24/1 54/54/1 53/53/1
f 24/24/1 55/55/1 54/54/1
f 24/24/1 23/23/1 55/55/1
f 23/23/1 56/56/1 55/55/1
f 23/23/1 57/57/1 56/56/1
f 23/23/1 22/22/1 57/57/1
f 22/22/1 58/58/1 57/57/1
f 22/22/1 59/59/1 58/58/1
f 22/22/1 21/21/1 59/59/1
f 21/21/1 60/60/1 59/59/1
f 21/21/1 61/61/1 60/60/1
f 21/21/1 20/20/1 61/61/1
f 20/20/1 62/62/1 61/61/1
f 20/20/1 63/63/1 62/62/1
f 20/20/1 19/19/1 63/63/1
f 19/19/1 64/64/1 63/63/1
f 19/19/1 65/65/1 64/64/1
f 19/19/1 18/18/1 65/65/1
f 18/18/1 66/66/1 65/65/1
f 18/18/1 67/67/1 66/66/1
f 18/18/1 17/17/1 67/67/1
f 17/17/1 68/68/1 67/67/1
f 17/17/1 69/69/1 68/68/1
f 17/17/1 16/16/1 69/69/1
f 16/16/1 70/70/1 69/69/1
f 16/16/1 71/71/1 70/70/1
f 16/16/1 15/15/1 71/71/1
f 15/15/1 72/72/1 71/71/1
f 15/15/1 73/73/1 72/72/1
f 15/15/1 14/14/1 73/73/1
f 14/14/1 74/74/1 73/73/1
f 14/14/1 75/75/1 74/74/1
f 14/14/1 13/13/1 75/75/1
f 13/13/1 76/76/1 75/75/1
f 13/13/1 77/77/1 76/76/1
f 13/13/1 12/12/1 77/77/1
f 12/12/1 78/78/1 77/77/1
f 12/12/1 79/79/1 78/78/1
f 12/12/1 11/11/1 79/79/1
f 11/11/1 80/80/1 79/79/1
f 11/11/1 81/81/1 80/80/1
f 11/11/1 10/10/1 81/81/1
f 10/10/1 82/82/1 81/81/1
f 10/10/1 83/83/1 82/82/1
f 10/10/1 9/9/1 83/83/1
f 9/9/1 84/84/1 83/83/1
f 9/9/1 85/85/1 84/84/1
f 9/9/1 8/8/1 85/85/1
f 8/8/1 86/86/1 85/85/1
f 8/8/1 87/87/1 86/86/1
f 8/8/1 7/7/1 87/87/1
f 7/7/1 88/88/1 87/87/1
f 7/7/1 89/89/1 88/88/1
f 7/7/1 6/6/1 89/89/1
f 6/6/1 90/90/1 89/89/1
f 6/6/1 91/91/1 90/90/1
f 6/6/1 5/5/1 91/91/1
f 5/5/1 92/92/1 91/91/1
f 5/5/1 93/93/1 92/92/1
f 5/5/1 4/4/1 93/93/1
f 4/4/1 94/94/1 93/93/1
f 4/4/1 95/95/1 94/94/1
f 4/4/1 3/3/1 95/95/1
f 3/3/1 96/96/1 95/95/1
f 3/3/1 97/97/1 96/96/1
f 3/3/1 2/2/1 97/97/1
f 2/2/1 35/35/1 97/97/1
