# Blender v2.78 (sub 0) OBJ File: ''
# www.blender.org
mtllib Vulcan.mtl
o Cylinder
v -0.727545 0.605867 0.693145
v 0.420552 0.605867 0.850477
v -0.721631 0.605867 -0.732608
v 0.467466 0.605867 -0.918043
v -0.644397 0.605867 -0.040618
v -0.124596 0.605867 0.923311
v 0.447177 0.605867 -0.029594
v -0.116722 0.605867 -0.889578
v -0.131965 0.605867 -0.034901
v -0.685971 0.605867 0.326264
v 0.147978 0.605867 0.886894
v 0.457321 0.605867 -0.473818
v -0.419177 0.605867 -0.811093
v -0.683014 0.605867 -0.386613
v -0.426071 0.605867 0.808228
v 0.433864 0.605867 0.410441
v 0.175372 0.605867 -0.903811
v -0.124343 0.605867 -0.462240
v -0.128281 0.605867 0.444205
v -0.388181 0.605867 -0.037760
v 0.157606 0.605867 -0.032247
v 0.152792 0.605867 0.427323
v -0.407126 0.605867 0.385234
v -0.403679 0.605867 -0.424426
v 0.166489 0.605867 -0.468029
v -0.706758 0.605867 0.509704
v 0.284265 0.605867 0.868685
v 0.462393 0.605867 -0.695931
v -0.570404 0.605867 -0.771851
v -0.663706 0.605867 -0.213616
v -0.275333 0.605867 0.865769
v 0.440521 0.605867 0.190424
v 0.029325 0.605867 -0.896694
v -0.120533 0.605867 -0.675909
v -0.130123 0.605867 0.204652
v -0.516289 0.605867 -0.039189
v 0.012821 0.605867 -0.033574
v -0.665184 0.605867 0.142823
v 0.011691 0.605867 0.905102
v 0.452249 0.605867 -0.251706
v -0.267949 0.605867 -0.850336
v -0.702323 0.605867 -0.559611
v -0.576807 0.605867 0.750687
v 0.427208 0.605867 0.630459
v 0.321419 0.605867 -0.910927
v -0.128154 0.605867 -0.248570
v -0.126438 0.605867 0.683758
v -0.260073 0.605867 -0.036330
v 0.302391 0.605867 -0.030921
v 0.155199 0.605867 0.197538
v 0.150385 0.605867 0.657108
v 0.012256 0.605867 0.435764
v 0.293328 0.605867 0.418882
v -0.397653 0.605867 0.173737
v -0.416598 0.605867 0.596731
v -0.546548 0.605867 0.355749
v -0.267703 0.605867 0.414719
v -0.411428 0.605867 -0.617760
v -0.395930 0.605867 -0.231093
v -0.543347 0.605867 -0.405520
v -0.264011 0.605867 -0.443333
v 0.170930 0.605867 -0.685920
v 0.162048 0.605867 -0.250138
v 0.021073 0.605867 -0.465134
v 0.311905 0.605867 -0.470924
v 0.307148 0.605867 -0.250922
v 0.016947 0.605867 -0.249354
v 0.025199 0.605867 -0.680914
v -0.262042 0.605867 -0.239832
v -0.529818 0.605867 -0.222354
v -0.556875 0.605867 -0.588685
v -0.271518 0.605867 0.640244
v -0.561678 0.605867 0.553218
v -0.531419 0.605867 0.158280
v 0.288796 0.605867 0.643784
v 0.011973 0.605867 0.670433
v 0.012538 0.605867 0.201095
v 0.297860 0.605867 0.193981
v -0.263888 0.605867 0.189195
v -0.265980 0.605867 -0.646834
v 0.316662 0.605867 -0.690925
v 0.025242 -0.347975 -1.437630
v 0.306931 -0.347949 -1.440032
v 0.547803 -0.347949 -1.404665
v 0.737162 -0.347949 -1.319129
v 0.870159 -0.348798 -1.205109
v 0.947664 -0.351293 -1.063559
v 0.973708 -0.353913 -0.891793
v 1.056893 -0.354680 -0.696589
v 1.272905 -0.353598 -0.476108
v 1.418663 -0.353229 -0.214372
v 1.410862 -0.353059 0.082985
v 1.208330 -0.354017 0.393473
v 0.948741 -0.354420 0.690918
v 0.933097 -0.351805 0.960323
v 0.788383 -0.348229 1.228546
v 0.493354 -0.347949 1.420586
v 0.125726 -0.347949 1.476026
v -0.215867 -0.347949 1.475258
v -0.529633 -0.347949 1.410587
v -0.809188 -0.347949 1.280058
v -1.039931 -0.347949 1.092918
v -1.227269 -0.347949 0.864646
v -1.366473 -0.347949 0.604213
v -1.452194 -0.347949 0.321627
v -1.481143 -0.347953 0.027747
v -1.452255 -0.348000 -0.266140
v -1.366612 -0.348072 -0.548768
v -1.227459 -0.348137 -0.809270
v -1.040118 -0.348171 -1.037607
v -0.811796 -0.348162 -1.224972
v -0.551292 -0.348112 -1.341300
v -0.268653 -0.348040 -1.408300
v -0.034027 0.751977 -0.807298
v 0.098129 0.751602 -0.837644
v 0.209363 0.750848 -0.847057
v 0.294612 0.751311 -0.826536
v 0.351366 0.755044 -0.776547
v 0.379883 0.759272 -0.706872
v 0.383050 0.758272 -0.618349
v 0.366250 0.756913 -0.510223
v 0.341334 0.755186 -0.381849
v 0.334319 0.751568 -0.232613
v 0.328707 0.752919 -0.058226
v 0.346499 0.751746 0.123838
v 0.372459 0.751497 0.297905
v 0.376828 0.755973 0.462239
v 0.326678 0.763281 0.610809
v 0.216383 0.759954 0.721021
v 0.063599 0.756400 0.774843
v -0.106521 0.758159 0.772857
v -0.274630 0.759315 0.734812
v -0.434578 0.758276 0.672822
v -0.577325 0.756330 0.575162
v -0.613271 0.754599 0.449911
v -0.554332 0.754171 0.305768
v -0.468229 0.754171 0.149061
v -0.424207 0.754171 -0.013909
v -0.468229 0.754171 -0.176879
v -0.554332 0.754171 -0.333587
v -0.616182 0.754171 -0.478009
v -0.595700 0.754171 -0.604596
v -0.475698 0.754171 -0.692196
v -0.331305 0.754166 -0.737404
v -0.180021 0.753464 -0.771270
v -0.011074 0.735729 -0.990272
v 0.191937 0.735729 -1.038371
v 0.365531 0.735729 -1.040907
v 0.502000 0.735729 -0.983960
v 0.597331 0.735729 -0.901187
v 0.651499 0.735729 -0.797720
v 0.669000 0.735729 -0.672985
v 0.658318 0.735729 -0.532760
v 0.622555 0.735729 -0.375065
v 0.587388 0.735729 -0.187407
v 0.581939 0.735729 0.025910
v 0.618972 0.735729 0.248355
v 0.641816 0.735729 0.461362
v 0.640699 0.735729 0.656181
v 0.538758 0.735729 0.851881
v 0.326290 0.735729 0.988801
v 0.061345 0.735729 1.031039
v -0.184837 0.735729 1.030519
v -0.410965 0.735729 0.983806
v -0.612436 0.735729 0.889245
v -0.778731 0.735729 0.754375
v -0.897019 0.735729 0.589863
v -0.873467 0.735729 0.402171
v -0.748846 0.735729 0.198515
v -0.673954 0.735729 -0.013281
v -0.748845 0.735729 -0.225077
v -0.873466 0.735729 -0.428734
v -0.896532 0.735729 -0.616425
v -0.778729 0.735729 -0.780810
v -0.614217 0.735729 -0.877118
v -0.426525 0.735729 -0.911550
v -0.222869 0.735729 -0.939913
v -0.247244 0.172002 -1.031395
v 0.004744 0.172002 -1.056213
v 0.794448 0.172002 -0.927684
v 0.850536 0.172002 -0.779276
v 0.906601 0.172002 -0.612440
v 0.984290 0.172198 -0.424932
v 1.017530 0.172052 -0.201553
v 1.011019 0.172297 0.052353
v 0.957307 0.172002 0.316917
v 0.840197 0.172002 0.570349
v 0.780317 0.172002 0.802140
v 0.658925 0.172002 1.025161
v 0.406135 0.172002 1.141821
v 0.090908 0.172002 1.161860
v -0.201995 0.172002 1.161319
v -0.471038 0.172002 1.128391
v -0.710745 0.172002 1.059439
v -0.908600 0.172002 0.918971
v -1.069234 0.172002 0.723236
v -1.188596 0.172002 0.499925
v -1.257289 0.172002 0.257618
v -1.265052 0.172002 0.005627
v -1.253552 0.172002 -0.246364
v -1.188596 0.172002 -0.488671
v -1.069233 0.172002 -0.711982
v 0.246284 0.172002 -1.094478
v -0.908598 0.172002 -0.907609
v 0.452823 0.172002 -1.140360
v -0.712863 0.172002 -1.007840
v 0.615191 0.172002 -1.130371
v -0.489552 0.172002 -1.017504
v 0.728614 0.172002 -1.050787
v -0.239606 0.433017 -0.973998
v 0.749623 0.433017 -0.886959
v -0.000212 0.433017 -1.052146
v 0.796903 0.433017 -0.745969
v 0.831771 0.433017 -0.587472
v 0.840239 0.433017 -0.409227
v 0.824223 0.433017 -0.197115
v 0.818131 0.433017 0.044000
v 0.826755 0.433017 0.295433
v 0.783150 0.433017 0.536197
v 0.736597 0.433017 0.756403
v 0.621270 0.433017 0.972552
v 0.381115 0.433017 1.093317
v 0.081644 0.433017 1.121801
v -0.196619 0.433017 1.121266
v -0.452213 0.433017 1.083348
v -0.679940 0.433017 1.007980
v -0.867904 0.433017 0.867394
v -1.020510 0.433017 0.681443
v -1.100290 0.433017 0.469293
v -1.049766 0.433017 0.239097
v -1.001943 0.433017 -0.000298
v -1.035884 0.433017 -0.239694
v -1.088040 0.433017 -0.469889
v -1.020509 0.433017 -0.682039
v 0.229254 0.433017 -1.083987
v -0.867902 0.433017 -0.865457
v 0.425470 0.433017 -1.108734
v -0.681952 0.433017 -0.949642
v 0.579722 0.433017 -1.086477
v -0.469802 0.433017 -0.958740
v 0.687475 0.433017 -1.003909
v 0.418759 0.325184 0.318980
v 0.417456 0.325401 0.136115
v 0.401741 0.329088 0.491628
v 0.348482 0.335465 0.647706
v 0.232610 0.332562 0.762284
v 0.072100 0.329461 0.817444
v -0.106621 0.330996 0.815508
v -0.283230 0.332005 0.776022
v -0.451266 0.331098 0.712568
v -0.602133 0.329401 0.610261
v -0.654920 0.327890 0.478676
v -0.617872 0.327516 0.327245
v -0.551220 0.327516 0.162615
v -0.515673 0.327516 -0.008596
v -0.551220 0.327516 -0.179806
v -0.617872 0.327516 -0.344436
v -0.658081 0.327516 -0.496161
v 0.108375 0.325275 -0.875343
v -0.030461 0.325602 -0.846404
v -0.621707 0.327516 -0.629148
v 0.225229 0.324617 -0.883930
v -0.494465 0.327516 -0.723808
v 0.314789 0.325022 -0.862150
v -0.342770 0.327513 -0.773450
v 0.374418 0.328278 -0.809794
v -0.183838 0.326900 -0.810068
v 0.404377 0.331967 -0.736596
v 0.408544 0.331095 -0.643597
v 0.402044 0.329909 -0.530004
v 0.396669 0.328402 -0.395139
v 0.406346 0.325246 -0.238356
v 0.398349 0.326424 -0.055152
vt 0.2729 0.5332
vt 0.2700 0.5230
vt 0.3008 0.4994
vt 0.3055 0.5165
vt 0.1355 0.4545
vt 0.1149 0.4439
vt 0.1066 0.3986
vt 0.1313 0.4104
vt 0.0560 0.5715
vt 0.0778 0.5727
vt 0.0464 0.6075
vt 0.0211 0.5992
vt 0.2237 0.6071
vt 0.2371 0.5900
vt 0.2560 0.6057
vt 0.2401 0.6298
vt 0.2628 0.5151
vt 0.2910 0.4862
vt 0.0931 0.4412
vt 0.0757 0.3994
vt 0.1029 0.5712
vt 0.0797 0.6039
vt 0.2505 0.5737
vt 0.2752 0.5819
vt 0.2519 0.5093
vt 0.2763 0.4764
vt 0.0723 0.4483
vt 0.0453 0.4178
vt 0.1262 0.5754
vt 0.1111 0.6072
vt 0.2372 0.5048
vt 0.2579 0.4692
vt 0.0561 0.4642
vt 0.0236 0.4486
vt 0.1442 0.5908
vt 0.1335 0.6294
vt 0.2194 0.5001
vt 0.2358 0.4640
vt 0.0458 0.4858
vt 0.0084 0.4796
vt 0.1590 0.6111
vt 0.1519 0.6574
vt 0.2002 0.4918
vt 0.2100 0.4570
vt 0.0452 0.4878
vt 0.0400 0.5114
vt 0.0001 0.5139
vt 0.0076 0.4824
vt 0.1736 0.6276
vt 0.1743 0.6716
vt 0.2624 0.5587
vt 0.2936 0.5591
vt 0.1778 0.4818
vt 0.1827 0.4446
vt 0.0384 0.5354
vt 0.0001 0.5451
vt 0.1909 0.6326
vt 0.2023 0.6665
vt 0.2703 0.5452
vt 0.3044 0.5372
vt 0.1559 0.4684
vt 0.1568 0.4263
vt 0.0422 0.5594
vt 0.0073 0.5743
vt 0.2093 0.6227
vt 0.2244 0.6515
vt 0.5048 0.1292
vt 0.5395 0.1340
vt 0.5331 0.1759
vt 0.5031 0.1721
vt 0.3687 0.1370
vt 0.3881 0.1298
vt 0.3972 0.1745
vt 0.3814 0.1819
vt 0.4798 0.4657
vt 0.5055 0.4652
vt 0.5036 0.5255
vt 0.4789 0.5264
vt 0.3478 0.1459
vt 0.3648 0.1921
vt 0.5299 0.4656
vt 0.5267 0.5256
vt 0.3251 0.1574
vt 0.3469 0.2054
vt 0.5530 0.4666
vt 0.5487 0.5268
vt 0.2995 0.1738
vt 0.3257 0.2212
vt 0.5759 0.4673
vt 0.5706 0.5274
vt 0.2702 0.1920
vt 0.3005 0.2368
vt 0.5996 0.4691
vt 0.5933 0.5290
vt 0.2393 0.2103
vt 0.2724 0.2505
vt 0.6245 0.4725
vt 0.6169 0.5322
vt 0.2121 0.2321
vt 0.2466 0.2649
vt 0.3057 0.4051
vt 0.3310 0.4029
vt 0.3366 0.4630
vt 0.3125 0.4650
vt 0.1879 0.2521
vt 0.2244 0.2800
vt 0.3562 0.4009
vt 0.3606 0.4610
vt 0.1644 0.2759
vt 0.2028 0.3014
vt 0.3817 0.3993
vt 0.3848 0.4594
vt 0.1457 0.3073
vt 0.1838 0.3307
vt 0.4016 0.3991
vt 0.4031 0.4594
vt 0.1288 0.3454
vt 0.1683 0.3644
vt 0.4235 0.4004
vt 0.4249 0.4610
vt 0.1143 0.3813
vt 0.1556 0.3962
vt 0.4483 0.4024
vt 0.4499 0.4634
vt 0.8725 0.3477
vt 0.8878 0.3800
vt 0.8481 0.3984
vt 0.8340 0.3697
vt 0.4728 0.4034
vt 0.4736 0.4647
vt 0.8570 0.3187
vt 0.8184 0.3431
vt 0.4974 0.4024
vt 0.4972 0.4634
vt 0.8386 0.2926
vt 0.8010 0.3191
vt 0.5222 0.4004
vt 0.5222 0.4610
vt 0.8175 0.2677
vt 0.7824 0.2980
vt 0.5442 0.3989
vt 0.5442 0.4592
vt 0.6531 0.4039
vt 0.6730 0.4053
vt 0.6660 0.4650
vt 0.6470 0.4637
vt 0.7949 0.2468
vt 0.7592 0.2857
vt 0.5636 0.3986
vt 0.5622 0.4587
vt 0.3057 0.4725
vt 0.3220 0.4701
vt 0.3282 0.5298
vt 0.3127 0.5322
vt 0.7656 0.2324
vt 0.7272 0.2779
vt 0.5858 0.3994
vt 0.5831 0.4595
vt 0.3348 0.4686
vt 0.3404 0.5284
vt 0.7352 0.2169
vt 0.6981 0.2669
vt 0.6082 0.4009
vt 0.6042 0.4609
vt 0.3460 0.4682
vt 0.3510 0.5282
vt 0.7095 0.1947
vt 0.6777 0.2434
vt 0.6310 0.4025
vt 0.6260 0.4624
vt 0.3571 0.4684
vt 0.3616 0.5284
vt 0.6859 0.1717
vt 0.6592 0.2161
vt 0.3702 0.4681
vt 0.3740 0.5282
vt 0.6589 0.1573
vt 0.6396 0.1989
vt 0.4727 0.1257
vt 0.4743 0.1686
vt 0.3861 0.4679
vt 0.3894 0.5281
vt 0.6284 0.1460
vt 0.6135 0.1883
vt 0.4452 0.1230
vt 0.4504 0.1665
vt 0.4051 0.4676
vt 0.4078 0.5280
vt 0.6010 0.1401
vt 0.5879 0.1823
vt 0.4238 0.1222
vt 0.4299 0.1669
vt 0.4271 0.4667
vt 0.4287 0.5274
vt 0.5715 0.1372
vt 0.5616 0.1791
vt 0.4055 0.1246
vt 0.4126 0.1697
vt 0.4529 0.4667
vt 0.4532 0.5273
vt 0.3616 0.0142
vt 0.3832 0.0075
vt 0.3989 0.0872
vt 0.3793 0.0929
vt 0.5506 0.0067
vt 0.5906 0.0140
vt 0.5775 0.0998
vt 0.5434 0.0968
vt 0.4072 0.0029
vt 0.4193 0.0843
vt 0.6289 0.0237
vt 0.6094 0.1027
vt 0.4360 0.0001
vt 0.4434 0.0850
vt 0.6674 0.0373
vt 0.6402 0.1104
vt 0.4697 0.0001
vt 0.4738 0.0889
vt 0.7055 0.0527
vt 0.6737 0.1235
vt 0.5092 0.0024
vt 0.5081 0.0929
vt 0.7427 0.0704
vt 0.7059 0.1383
vt 0.7786 0.0904
vt 0.7364 0.1555
vt 0.8131 0.1127
vt 0.7656 0.1751
vt 0.8458 0.1374
vt 0.7941 0.1955
vt 0.8766 0.1644
vt 0.8207 0.2184
vt 0.9055 0.1933
vt 0.8456 0.2436
vt 0.9324 0.2242
vt 0.8686 0.2706
vt 0.9572 0.2568
vt 0.8882 0.2987
vt 0.9800 0.2930
vt 0.9050 0.3298
vt 0.9999 0.3331
vt 0.9210 0.3643
vt 0.0001 0.3397
vt 0.0170 0.2953
vt 0.0950 0.3299
vt 0.0798 0.3682
vt 0.0382 0.2485
vt 0.1131 0.2884
vt 0.0661 0.2086
vt 0.1340 0.2540
vt 0.0955 0.1786
vt 0.1593 0.2274
vt 0.1248 0.1555
vt 0.1851 0.2047
vt 0.1597 0.1133
vt 0.2140 0.1767
vt 0.1929 0.0739
vt 0.2448 0.1526
vt 0.2281 0.0518
vt 0.2762 0.1332
vt 0.2685 0.0411
vt 0.3057 0.1189
vt 0.3109 0.0335
vt 0.3336 0.1094
vt 0.3391 0.0238
vt 0.3575 0.1005
vt 0.8622 0.3349
vt 0.8916 0.2653
vt 0.9999 0.3039
vt 0.9695 0.3732
vt 0.7333 0.6085
vt 0.7743 0.5436
vt 0.8783 0.5812
vt 0.8314 0.6471
vt 0.3294 0.4532
vt 0.3466 0.3856
vt 0.4621 0.4308
vt 0.4392 0.4930
vt 0.4308 0.1806
vt 0.4589 0.1123
vt 0.5665 0.1497
vt 0.5404 0.2200
vt 0.3747 0.3173
vt 0.4027 0.2490
vt 0.5143 0.2902
vt 0.4882 0.3605
vt 0.1476 0.2309
vt 0.1796 0.1664
vt 0.2912 0.2077
vt 0.2611 0.2741
vt 0.2116 0.1020
vt 0.2436 0.0375
vt 0.3512 0.0749
vt 0.3212 0.1413
vt 0.2950 0.5883
vt 0.3122 0.5207
vt 0.4162 0.5552
vt 0.3933 0.6174
vt 0.0984 0.5300
vt 0.1041 0.4518
vt 0.2082 0.4863
vt 0.1967 0.5591
vt 0.1099 0.3736
vt 0.1156 0.2954
vt 0.2311 0.3405
vt 0.2196 0.4134
vt 0.6515 0.7385
vt 0.6924 0.6735
vt 0.7845 0.7129
vt 0.7376 0.7788
vt 0.4793 0.6578
vt 0.5083 0.5946
vt 0.6004 0.6341
vt 0.5654 0.6981
vt 0.5372 0.5315
vt 0.5662 0.4684
vt 0.6702 0.5060
vt 0.6353 0.5700
vt 0.8036 0.4740
vt 0.8329 0.4045
vt 0.9391 0.4425
vt 0.9087 0.5118
vt 0.5933 0.3983
vt 0.6205 0.3283
vt 0.7267 0.3664
vt 0.6985 0.4362
vt 0.6477 0.2583
vt 0.6748 0.1882
vt 0.7832 0.2268
vt 0.7550 0.2966
vt 0.4504 0.7209
vt 0.5305 0.7622
vt 0.3703 0.6796
vt 0.6106 0.8035
vt 0.6907 0.8447
vt 0.0001 0.4173
vt 0.0001 0.3338
vt 0.0001 0.2503
vt 0.0926 0.6082
vt 0.1852 0.6320
vt 0.0001 0.5844
vt 0.0001 0.5009
vt 0.2778 0.6558
vt 0.0680 0.1252
vt 0.1020 0.0626
vt 0.1360 0.0001
vt 0.0341 0.1877
vn 0.0346 0.9971 -0.0677
vn 0.0761 0.9970 -0.0131
vn -0.0690 0.9974 -0.0184
vn -0.0154 0.9950 -0.0988
vn 0.0604 0.9968 -0.0532
vn 0.0850 0.9962 0.0164
vn -0.0714 0.9966 -0.0418
vn -0.0188 0.9953 -0.0951
vn 0.0815 0.9967 -0.0032
vn 0.0454 0.9963 0.0727
vn -0.0715 0.9972 -0.0227
vn 0.0773 0.9969 0.0140
vn 0.0107 0.9965 0.0832
vn -0.0714 0.9972 0.0226
vn 0.0713 0.9972 0.0211
vn 0.0037 0.9964 0.0842
vn -0.0712 0.9966 0.0417
vn 0.0641 0.9978 0.0187
vn -0.0152 0.9963 0.0841
vn -0.0682 0.9975 0.0174
vn -0.0198 0.9958 -0.0894
vn 0.0655 0.9979 -0.0016
vn -0.0353 0.9966 0.0749
vn -0.0600 0.9978 -0.0285
vn -0.0007 0.9969 -0.0787
vn 0.0654 0.9978 -0.0060
vn -0.0512 0.9969 0.0597
vn -0.0418 0.9970 -0.0646
vn 0.0208 0.9976 -0.0656
vn 0.0624 0.9980 -0.0072
vn -0.0630 0.9976 0.0276
vn -0.0212 0.9959 -0.0885
vn -0.1997 0.1125 -0.9734
vn -0.1582 0.1583 -0.9746
vn -0.1275 0.7345 -0.6665
vn -0.1564 0.7291 -0.6663
vn 0.9160 0.3328 -0.2241
vn 0.8790 0.3063 -0.3654
vn 0.5802 0.7861 -0.2131
vn 0.5835 0.8082 -0.0797
vn -0.9855 -0.1462 0.0855
vn -0.9939 -0.1087 0.0189
vn -0.7108 0.7033 0.0095
vn -0.7392 0.6704 0.0640
vn 0.9017 0.4140 -0.1244
vn 0.5454 0.8380 0.0141
vn -0.9802 -0.0815 -0.1803
vn -0.6519 0.7470 -0.1306
vn 0.8536 0.5206 -0.0196
vn 0.4879 0.8708 0.0594
vn -0.8428 -0.0886 -0.5308
vn -0.5412 0.7712 -0.3351
vn 0.8083 0.5880 0.0288
vn 0.4553 0.8896 0.0356
vn -0.5211 -0.1013 -0.8474
vn -0.3588 0.7584 -0.5440
vn 0.8128 0.5824 0.0077
vn 0.4552 0.8902 -0.0161
vn -0.1595 -0.1019 -0.9819
vn -0.1126 0.7420 -0.6608
vn 0.8636 0.4967 0.0862
vn 0.5067 0.8619 -0.0189
vn 0.1134 -0.0989 -0.9886
vn 0.0838 0.7289 -0.6794
vn 0.9142 0.3684 0.1688
vn 0.5614 0.8268 0.0333
vn 0.2873 -0.0983 -0.9528
vn 0.2005 0.7218 -0.6624
vn 0.8970 0.3085 0.3165
vn 0.6087 0.7766 0.1626
vn 0.4615 -0.0996 -0.8815
vn 0.3129 0.7300 -0.6076
vn 0.6652 0.3177 0.6757
vn 0.4599 0.7803 0.4238
vn 0.7887 -0.1036 -0.6060
vn 0.4921 0.7865 -0.3730
vn 0.2751 0.2815 0.9193
vn 0.1981 0.7692 0.6075
vn 0.9944 -0.1033 -0.0195
vn 0.6235 0.7818 0.0013
vn 0.0486 0.2328 0.9713
vn 0.0392 0.7678 0.6394
vn 0.9241 -0.1165 0.3638
vn 0.6577 0.7071 0.2597
vn -0.0756 0.2288 0.9705
vn -0.0561 0.7629 0.6441
vn 0.9286 -0.1627 0.3336
vn 0.7227 0.6457 0.2464
vn -0.2342 0.2632 0.9359
vn -0.1724 0.7753 0.6076
vn 0.9802 -0.1981 0.0018
vn 0.8011 0.5985 -0.0014
vn -0.4468 0.3083 0.8398
vn -0.3028 0.7957 0.5245
vn 0.9277 -0.1711 -0.3316
vn 0.7246 0.6428 -0.2484
vn -0.6562 0.3333 0.6770
vn -0.4240 0.8065 0.4120
vn 0.9194 -0.1251 -0.3727
vn 0.6601 0.7021 -0.2670
vn -0.8169 0.3755 0.4377
vn -0.5637 0.7969 0.2174
vn 0.9937 -0.1001 -0.0502
vn 0.6379 0.7688 -0.0451
vn 0.2228 -0.0863 0.9710
vn 0.1439 -0.0846 0.9860
vn 0.1011 0.7260 0.6802
vn 0.1591 0.7112 0.6847
vn -0.8701 0.4858 0.0828
vn -0.5202 0.8486 -0.0965
vn 0.8336 -0.0918 0.5446
vn 0.5084 0.8003 0.3176
vn -0.0820 -0.0895 0.9926
vn -0.0506 0.7413 0.6693
vn -0.7695 0.6235 -0.1381
vn -0.4031 0.9048 -0.1374
vn 0.4540 -0.0860 0.8868
vn 0.3078 0.7478 0.5882
vn -0.4543 -0.0956 0.8857
vn -0.3078 0.7567 0.5767
vn -0.7197 0.6941 -0.0142
vn -0.3478 0.9376 -0.0029
vn 0.2624 -0.0876 0.9609
vn 0.1883 0.7208 0.6670
vn -0.8022 -0.0892 0.5903
vn -0.5429 0.7603 0.3565
vn -0.7645 0.6316 0.1287
vn -0.4053 0.9044 0.1330
vn 0.2268 -0.0888 0.9698
vn 0.1647 0.7084 0.6863
vn -0.9724 -0.0717 0.2218
vn -0.6369 0.7609 0.1245
vn -0.8709 0.4871 -0.0652
vn -0.5281 0.8434 0.0984
vn -0.9975 -0.0634 -0.0305
vn -0.6769 0.7357 -0.0208
vn -0.8299 0.3556 -0.4299
vn -0.5772 0.7858 -0.2221
vn -0.1406 0.1043 -0.9845
vn -0.0901 0.7147 -0.6936
vn -0.9905 -0.0829 -0.1099
vn -0.7019 0.7087 -0.0704
vn -0.5998 0.2966 -0.7431
vn -0.4046 0.7753 -0.4849
vn 0.0311 0.1817 -0.9828
vn 0.0581 0.7280 -0.6830
vn -0.9907 -0.1244 -0.0555
vn -0.7413 0.6705 -0.0278
vn -0.2596 0.2546 -0.9315
vn -0.1887 0.7425 -0.6427
vn 0.3879 0.2787 -0.8785
vn 0.2791 0.7806 -0.5593
vn -0.9877 -0.1557 -0.0154
vn -0.7442 0.6679 -0.0051
vn -0.0771 0.2005 -0.9766
vn -0.0765 0.7312 -0.6779
vn 0.7254 0.3117 -0.6137
vn 0.4747 0.7880 -0.3921
vn -0.9863 -0.1623 0.0304
vn -0.7525 0.6582 0.0214
vn 0.8760 0.3320 -0.3498
vn 0.7064 0.3769 -0.5990
vn 0.7252 0.3053 -0.6171
vn 0.8890 0.2748 -0.3662
vn -0.1021 0.5750 -0.8117
vn -0.1719 0.5220 -0.8354
vn -0.1129 0.3771 -0.9193
vn -0.1205 0.3801 -0.9171
vn 0.4116 0.4134 -0.8122
vn 0.3857 0.3141 -0.8675
vn -0.3712 0.4318 -0.8220
vn -0.3130 0.3384 -0.8874
vn 0.1116 0.4698 -0.8756
vn 0.0357 0.3050 -0.9517
vn -0.6308 0.3559 -0.6894
vn -0.6182 0.2946 -0.7287
vn -0.0412 0.5352 -0.8437
vn -0.1068 0.3017 -0.9474
vn -0.7835 0.3361 -0.5226
vn -0.8045 0.2961 -0.5149
vn -0.0715 0.5775 -0.8132
vn -0.1291 0.3348 -0.9334
vn -0.8710 0.3428 -0.3517
vn -0.8814 0.3810 -0.2793
vn -0.9188 0.3599 -0.1623
vn -0.8704 0.4851 -0.0835
vn -0.9285 0.3712 -0.0015
vn -0.8489 0.5284 -0.0096
vn -0.9144 0.3689 0.1664
vn -0.8743 0.4793 0.0767
vn -0.8596 0.3674 0.3551
vn -0.8776 0.3839 0.2869
vn -0.7693 0.3746 0.5176
vn -0.7957 0.3204 0.5139
vn -0.6372 0.3910 0.6641
vn -0.6555 0.3172 0.6853
vn -0.4377 0.4300 0.7896
vn -0.4436 0.3303 0.8331
vn -0.2293 0.4783 0.8477
vn -0.2257 0.3373 0.9139
vn -0.0712 0.5098 0.8573
vn -0.0715 0.3424 0.9368
vn 0.0473 0.5097 0.8590
vn 0.0428 0.3432 0.9383
vn 0.2676 0.4847 0.8327
vn 0.2673 0.3523 0.8969
vn 0.6359 0.4293 0.6413
vn 0.6660 0.3370 0.6655
vn 0.8887 0.3345 0.3134
vn 0.9080 0.2739 0.3168
vn 0.8878 0.3225 0.3283
vn 0.9008 0.3064 0.3076
vn 0.7810 0.4511 0.4319
vn 0.8347 0.4498 0.3177
vn 0.8000 0.5750 0.1716
vn 0.8139 0.5684 0.1202
vn 0.8035 0.5822 -0.1240
vn 0.8141 0.5759 -0.0747
vn 0.7818 0.4758 -0.4030
vn 0.8342 0.4747 -0.2805
vn 0.8265 0.3424 -0.4468
vn 0.8766 0.3369 -0.3435
vn 0.9110 0.2980 -0.2848
vn 0.9172 0.2683 -0.2944
vn 0.0000 1.0000 -0.0000
usemtl Vulcan
s off
f 117/1/1 118/2/1 150/3/1 149/4/1
f 126/5/2 127/6/2 159/7/2 158/8/2
f 135/9/3 136/10/3 168/11/3 167/12/3
f 144/13/4 145/14/4 177/15/4 176/16/4
f 118/2/5 119/17/5 151/18/5 150/3/5
f 127/6/6 128/19/6 160/20/6 159/7/6
f 136/10/7 137/21/7 169/22/7 168/11/7
f 145/14/8 114/23/8 146/24/8 177/15/8
f 119/17/9 120/25/9 152/26/9 151/18/9
f 128/19/10 129/27/10 161/28/10 160/20/10
f 137/21/11 138/29/11 170/30/11 169/22/11
f 120/25/12 121/31/12 153/32/12 152/26/12
f 129/27/13 130/33/13 162/34/13 161/28/13
f 138/29/14 139/35/14 171/36/14 170/30/14
f 121/31/15 122/37/15 154/38/15 153/32/15
f 130/33/16 131/39/16 163/40/16 162/34/16
f 139/35/17 140/41/17 172/42/17 171/36/17
f 122/37/18 123/43/18 155/44/18 154/38/18
f 131/45/19 132/46/19 164/47/19 163/48/19
f 140/41/20 141/49/20 173/50/20 172/42/20
f 114/23/21 115/51/21 147/52/21 146/24/21
f 123/43/22 124/53/22 156/54/22 155/44/22
f 132/46/23 133/55/23 165/56/23 164/47/23
f 141/49/24 142/57/24 174/58/24 173/50/24
f 115/51/25 116/59/25 148/60/25 147/52/25
f 124/53/26 125/61/26 157/62/26 156/54/26
f 133/55/27 134/63/27 166/64/27 165/56/27
f 142/57/28 143/65/28 175/66/28 174/58/28
f 116/59/29 117/1/29 149/4/29 148/60/29
f 125/61/30 126/5/30 158/8/30 157/62/30
f 134/63/31 135/9/31 167/12/31 166/64/31
f 143/65/32 144/13/32 176/16/32 175/66/32
s 1
f 212/67/33 210/68/34 177/69/35 146/70/36
f 213/71/37 211/72/38 151/73/39 152/74/40
f 243/75/41 242/76/42 126/77/43 125/78/44
f 214/79/45 213/71/37 152/74/40 153/80/46
f 242/76/42 244/81/47 127/82/48 126/77/43
f 215/83/49 214/79/45 153/80/46 154/84/50
f 244/81/47 245/85/51 128/86/52 127/82/48
f 216/87/53 215/83/49 154/84/50 155/88/54
f 245/85/51 246/89/55 129/90/56 128/86/52
f 217/91/57 216/87/53 155/88/54 156/92/58
f 246/89/55 247/93/59 130/94/60 129/90/56
f 218/95/61 217/91/57 156/92/58 157/96/62
f 247/93/59 248/97/63 131/98/64 130/94/60
f 219/99/65 218/95/61 157/96/62 158/100/66
f 248/101/63 249/102/67 132/103/68 131/104/64
f 220/105/69 219/99/65 158/100/66 159/106/70
f 249/102/67 250/107/71 133/108/72 132/103/68
f 221/109/73 220/105/69 159/106/70 160/110/74
f 250/107/71 251/111/75 134/112/76 133/108/72
f 222/113/77 221/109/73 160/110/74 161/114/78
f 251/111/75 252/115/79 135/116/80 134/112/76
f 223/117/81 222/113/77 161/114/78 162/118/82
f 252/115/79 253/119/83 136/120/84 135/116/80
f 224/121/85 223/117/81 162/118/82 163/122/86
f 253/119/83 254/123/87 137/124/88 136/120/84
f 225/125/89 224/126/85 163/127/86 164/128/90
f 254/123/87 255/129/91 138/130/92 137/124/88
f 226/131/93 225/125/89 164/128/90 165/132/94
f 255/129/91 256/133/95 139/134/96 138/130/92
f 227/135/97 226/131/93 165/132/94 166/136/98
f 256/133/95 257/137/99 140/138/100 139/134/96
f 228/139/101 227/135/97 166/136/98 167/140/102
f 257/137/99 258/141/103 141/142/104 140/138/100
f 260/143/105 259/144/106 115/145/107 114/146/108
f 229/147/109 228/139/101 167/140/102 168/148/110
f 258/141/103 261/149/111 142/150/112 141/142/104
f 259/151/106 262/152/113 116/153/114 115/154/107
f 230/155/115 229/147/109 168/148/110 169/156/116
f 261/149/111 263/157/117 143/158/118 142/150/112
f 262/152/113 264/159/119 117/160/120 116/153/114
f 231/161/121 230/155/115 169/156/116 170/162/122
f 263/157/117 265/163/123 144/164/124 143/158/118
f 264/159/119 266/165/125 118/166/126 117/160/120
f 232/167/127 231/161/121 170/162/122 171/168/128
f 265/163/123 267/169/129 145/170/130 144/164/124
f 266/165/125 268/171/131 119/172/132 118/166/126
f 233/173/133 232/167/127 171/168/128 172/174/134
f 267/169/129 260/143/105 114/146/108 145/170/130
f 268/171/131 269/175/135 120/176/136 119/172/132
f 234/177/137 233/173/133 172/174/134 173/178/138
f 235/179/139 212/67/33 146/70/36 147/180/140
f 269/175/135 270/181/141 121/182/142 120/176/136
f 236/183/143 234/177/137 173/178/138 174/184/144
f 237/185/145 235/179/139 147/180/140 148/186/146
f 270/181/141 271/187/147 122/188/148 121/182/142
f 238/189/149 236/183/143 174/184/144 175/190/150
f 239/191/151 237/185/145 148/186/146 149/192/152
f 271/187/147 272/193/153 123/194/154 122/188/148
f 240/195/155 238/189/149 175/190/150 176/196/156
f 241/197/157 239/191/151 149/192/152 150/198/158
f 272/193/153 273/199/159 124/200/160 123/194/154
f 210/68/34 240/195/155 176/196/156 177/69/35
f 211/72/38 241/197/157 150/198/158 151/73/39
f 273/199/159 243/75/41 125/78/44 124/200/160
f 87/201/161 86/202/162 209/203/163 180/204/164
f 113/205/165 112/206/166 208/207/167 178/208/168
f 86/202/162 85/209/169 207/210/170 209/203/163
f 112/206/166 111/211/171 206/212/172 208/207/167
f 85/209/169 84/213/173 205/214/174 207/210/170
f 111/211/171 110/215/175 204/216/176 206/212/172
f 84/213/173 83/217/177 203/218/178 205/214/174
f 110/215/175 109/219/179 202/220/180 204/216/176
f 83/217/177 82/221/181 179/222/182 203/218/178
f 109/219/179 108/223/183 201/224/184 202/220/180
f 108/223/183 107/225/185 200/226/186 201/224/184
f 107/225/185 106/227/187 199/228/188 200/226/186
f 106/227/187 105/229/189 198/230/190 199/228/188
f 105/229/189 104/231/191 197/232/192 198/230/190
f 104/231/191 103/233/193 196/234/194 197/232/192
f 103/233/193 102/235/195 195/236/196 196/234/194
f 102/235/195 101/237/197 194/238/198 195/236/196
f 101/237/197 100/239/199 193/240/200 194/238/198
f 100/239/199 99/241/201 192/242/202 193/240/200
f 99/243/201 98/244/203 191/245/204 192/246/202
f 98/244/203 97/247/205 190/248/206 191/245/204
f 97/247/205 96/249/207 189/250/208 190/248/206
f 96/249/207 95/251/209 188/252/210 189/250/208
f 95/251/209 94/253/211 187/254/212 188/252/210
f 94/253/211 93/255/213 186/256/214 187/254/212
f 93/255/213 92/257/215 185/258/216 186/256/214
f 92/257/215 91/259/217 184/260/218 185/258/216
f 91/259/217 90/261/219 183/262/220 184/260/218
f 90/261/219 89/263/221 182/264/222 183/262/220
f 89/263/221 88/265/223 181/266/224 182/264/222
f 88/265/223 87/201/161 180/204/164 181/266/224
f 82/221/181 113/205/165 178/208/168 179/222/182
f 180/204/164 209/203/163 241/197/157 211/72/38
f 178/208/168 208/207/167 240/195/155 210/68/34
f 209/203/163 207/210/170 239/191/151 241/197/157
f 208/207/167 206/212/172 238/189/149 240/195/155
f 207/210/170 205/214/174 237/185/145 239/191/151
f 206/212/172 204/216/176 236/183/143 238/189/149
f 205/214/174 203/218/178 235/179/139 237/185/145
f 204/216/176 202/220/180 234/177/137 236/183/143
f 203/218/178 179/222/182 212/67/33 235/179/139
f 202/220/180 201/224/184 233/173/133 234/177/137
f 201/224/184 200/226/186 232/167/127 233/173/133
f 200/226/186 199/228/188 231/161/121 232/167/127
f 199/228/188 198/230/190 230/155/115 231/161/121
f 198/230/190 197/232/192 229/147/109 230/155/115
f 197/232/192 196/234/194 228/139/101 229/147/109
f 196/234/194 195/236/196 227/135/97 228/139/101
f 195/236/196 194/238/198 226/131/93 227/135/97
f 194/238/198 193/240/200 225/125/89 226/131/93
f 193/240/200 192/242/202 224/126/85 225/125/89
f 192/246/202 191/245/204 223/117/81 224/121/85
f 191/245/204 190/248/206 222/113/77 223/117/81
f 190/248/206 189/250/208 221/109/73 222/113/77
f 189/250/208 188/252/210 220/105/69 221/109/73
f 188/252/210 187/254/212 219/99/65 220/105/69
f 187/254/212 186/256/214 218/95/61 219/99/65
f 186/256/214 185/258/216 217/91/57 218/95/61
f 185/258/216 184/260/218 216/87/53 217/91/57
f 184/260/218 183/262/220 215/83/49 216/87/53
f 183/262/220 182/264/222 214/79/45 215/83/49
f 182/264/222 181/266/224 213/71/37 214/79/45
f 181/266/224 180/204/164 211/72/38 213/71/37
f 179/222/182 178/208/168 210/68/34 212/67/33
usemtl Oil
s off
f 81/267/225 28/268/225 4/269/225 45/270/225
f 80/271/225 34/272/225 8/273/225 41/274/225
f 79/275/225 35/276/225 9/277/225 48/278/225
f 78/279/225 32/280/225 7/281/225 49/282/225
f 77/283/225 50/284/225 21/285/225 37/286/225
f 76/287/225 51/288/225 22/289/225 52/290/225
f 75/291/225 44/292/225 16/293/225 53/294/225
f 74/295/225 54/296/225 20/297/225 36/298/225
f 73/299/225 55/300/225 23/301/225 56/302/225
f 72/303/225 47/304/225 19/305/225 57/306/225
f 71/307/225 58/308/225 13/309/225 29/310/225
f 70/311/225 59/312/225 24/313/225 60/314/225
f 69/315/225 46/316/225 18/317/225 61/318/225
f 68/319/225 62/320/225 17/321/225 33/322/225
f 67/323/225 63/324/225 25/325/225 64/326/225
f 66/327/225 40/328/225 12/329/225 65/330/225
f 63/324/225 66/327/225 65/330/225 25/325/225
f 21/285/225 49/282/225 66/327/225 63/324/225
f 49/282/225 7/281/225 40/328/225 66/327/225
f 46/316/225 67/323/225 64/326/225 18/317/225
f 9/277/225 37/286/225 67/323/225 46/316/225
f 37/286/225 21/285/225 63/324/225 67/323/225
f 34/272/225 68/319/225 33/322/225 8/273/225
f 18/317/225 64/326/225 68/319/225 34/272/225
f 64/326/225 25/325/225 62/320/225 68/319/225
f 59/312/225 69/315/225 61/318/225 24/313/225
f 20/297/225 48/278/225 69/315/225 59/312/225
f 48/278/225 9/277/225 46/316/225 69/315/225
f 30/331/225 70/311/225 60/314/225 14/332/225
f 5/333/225 36/298/225 70/311/225 30/331/225
f 36/298/225 20/297/225 59/312/225 70/311/225
f 42/334/225 71/307/225 29/310/225 3/335/225
f 14/332/225 60/314/225 71/307/225 42/334/225
f 60/314/225 24/313/225 58/308/225 71/307/225
f 55/300/225 72/303/225 57/306/225 23/301/225
f 15/336/225 31/337/225 72/303/225 55/300/225
f 31/337/225 6/338/225 47/304/225 72/303/225
f 26/339/225 73/299/225 56/302/225 10/340/225
f 1/341/225 43/342/225 73/299/225 26/339/225
f 43/342/225 15/336/225 55/300/225 73/299/225
f 38/343/225 74/295/225 36/298/225 5/333/225
f 10/340/225 56/302/225 74/295/225 38/343/225
f 56/302/225 23/301/225 54/296/225 74/295/225
f 51/288/225 75/291/225 53/294/225 22/289/225
f 11/344/225 27/345/225 75/291/225 51/288/225
f 27/345/225 2/346/225 44/292/225 75/291/225
f 47/304/225 76/287/225 52/290/225 19/305/225
f 6/338/225 39/347/225 76/287/225 47/304/225
f 39/347/225 11/344/225 51/288/225 76/287/225
f 35/276/225 77/283/225 37/286/225 9/277/225
f 19/305/225 52/290/225 77/283/225 35/276/225
f 52/290/225 22/289/225 50/284/225 77/283/225
f 50/284/225 78/279/225 49/282/225 21/285/225
f 22/289/225 53/294/225 78/279/225 50/284/225
f 53/294/225 16/293/225 32/280/225 78/279/225
f 54/296/225 79/275/225 48/278/225 20/297/225
f 23/301/225 57/306/225 79/275/225 54/296/225
f 57/306/225 19/305/225 35/276/225 79/275/225
f 58/308/225 80/271/225 41/274/225 13/309/225
f 24/313/225 61/318/225 80/271/225 58/308/225
f 61/318/225 18/317/225 34/272/225 80/271/225
f 62/320/225 81/267/225 45/270/225 17/321/225
f 25/325/225 65/330/225 81/267/225 62/320/225
f 65/330/225 12/329/225 28/268/225 81/267/225
